-------------------------------------------------------------------------------
Test set: ru.mirea.weather.LoggerTest
-------------------------------------------------------------------------------
Tests run: 1, Failures: 0, Errors: 0, Skipped: 0, Time elapsed: 0.082 sec - in ru.mirea.weather.LoggerTest
